(module Connector_PCBEdge:BUS_ISA8 (layer F.Cu) (tedit 5CAE08CB)
  (descr "AT ISA 16 bits Bus Edge Connector")
  (tags "BUS ISA AT Edge connector")
  (attr virtual)
  (fp_text reference REF** (at -33.528 -6.985) (layer F.SilkS)
    (effects (font (size 1 1) (thickness 0.15)))
  )
  (fp_text value BUS_ISA8 (at -74.803 -6.604) (layer F.Fab)
    (effects (font (size 1 1) (thickness 0.15)))
  )
  (fp_line (start 0 0) (end 0 0) (layer F.SilkS) (width 0.12))
  (fp_line (start 0 0) (end 0 0) (layer F.SilkS) (width 0.12))
  (fp_line (start 0 0) (end 0 0) (layer F.Fab) (width 0.12))
  (fp_line (start 0 0) (end 0 0) (layer F.Fab) (width 0.12))
  (fp_line (start 2.79 4.06) (end -132.33 4.06) (layer F.CrtYd) (width 0.05))
  (fp_line (start 2.79 4.06) (end 2.79 -5.33) (layer F.CrtYd) (width 0.05))
  (fp_line (start -132.33 -5.33) (end -132.33 4.06) (layer F.CrtYd) (width 0.05))
  (fp_line (start -132.33 -5.33) (end 2.79 -5.33) (layer F.CrtYd) (width 0.05))
  (fp_line (start 2.54 -5.08) (end 2.54 3.81) (layer F.Fab) (width 0.1))
  (fp_line (start -78.74 3.81) (end -78.74 -3.81) (layer F.Fab) (width 0.1))
  (fp_line (start 2.54 3.81) (end -78.74 3.81) (layer F.Fab) (width 0.1))
  (fp_line (start -78.8 -3.75) (end -78.8 3.85) (layer F.SilkS) (width 0.12))
  (fp_line (start 2.6 -5.1) (end 3 -5.1) (layer F.SilkS) (width 0.12))
  (fp_line (start 2.6 3.85) (end 2.6 -5.1) (layer F.SilkS) (width 0.12))
  (fp_text user %R (at -64.77 -0.635) (layer F.Fab)
    (effects (font (size 1 1) (thickness 0.15)))
  )
  (pad 62 connect rect (at -76.2 0) (size 1.78 7.62) (layers F.Cu F.Mask))
  (pad 61 connect rect (at -73.66 0) (size 1.78 7.62) (layers F.Cu F.Mask))
  (pad 60 connect rect (at -71.12 0) (size 1.78 7.62) (layers F.Cu F.Mask))
  (pad 59 connect rect (at -68.58 0) (size 1.78 7.62) (layers F.Cu F.Mask))
  (pad 58 connect rect (at -66.04 0) (size 1.78 7.62) (layers F.Cu F.Mask))
  (pad 57 connect rect (at -63.5 0) (size 1.78 7.62) (layers F.Cu F.Mask))
  (pad 56 connect rect (at -60.96 0) (size 1.78 7.62) (layers F.Cu F.Mask))
  (pad 55 connect rect (at -58.42 0) (size 1.78 7.62) (layers F.Cu F.Mask))
  (pad 54 connect rect (at -55.88 0) (size 1.78 7.62) (layers F.Cu F.Mask))
  (pad 53 connect rect (at -53.34 0) (size 1.78 7.62) (layers F.Cu F.Mask))
  (pad 52 connect rect (at -50.8 0) (size 1.78 7.62) (layers F.Cu F.Mask))
  (pad 51 connect rect (at -48.26 0) (size 1.78 7.62) (layers F.Cu F.Mask))
  (pad 50 connect rect (at -45.72 0) (size 1.78 7.62) (layers F.Cu F.Mask))
  (pad 49 connect rect (at -43.18 0) (size 1.78 7.62) (layers F.Cu F.Mask))
  (pad 48 connect rect (at -40.64 0) (size 1.78 7.62) (layers F.Cu F.Mask))
  (pad 47 connect rect (at -38.1 0) (size 1.78 7.62) (layers F.Cu F.Mask))
  (pad 46 connect rect (at -35.56 0) (size 1.78 7.62) (layers F.Cu F.Mask))
  (pad 45 connect rect (at -33.02 0) (size 1.78 7.62) (layers F.Cu F.Mask))
  (pad 44 connect rect (at -30.48 0) (size 1.78 7.62) (layers F.Cu F.Mask))
  (pad 43 connect rect (at -27.94 0) (size 1.78 7.62) (layers F.Cu F.Mask))
  (pad 42 connect rect (at -25.4 0) (size 1.78 7.62) (layers F.Cu F.Mask))
  (pad 41 connect rect (at -22.86 0) (size 1.78 7.62) (layers F.Cu F.Mask))
  (pad 40 connect rect (at -20.32 0) (size 1.78 7.62) (layers F.Cu F.Mask))
  (pad 39 connect rect (at -17.78 0) (size 1.78 7.62) (layers F.Cu F.Mask))
  (pad 38 connect rect (at -15.24 0) (size 1.78 7.62) (layers F.Cu F.Mask))
  (pad 37 connect rect (at -12.7 0) (size 1.78 7.62) (layers F.Cu F.Mask))
  (pad 36 connect rect (at -10.16 0) (size 1.78 7.62) (layers F.Cu F.Mask))
  (pad 35 connect rect (at -7.62 0) (size 1.78 7.62) (layers F.Cu F.Mask))
  (pad 34 connect rect (at -5.08 0) (size 1.78 7.62) (layers F.Cu F.Mask))
  (pad 33 connect rect (at -2.54 0) (size 1.78 7.62) (layers F.Cu F.Mask))
  (pad 32 connect rect (at 0 0) (size 1.78 7.62) (layers F.Cu F.Mask))
  (pad 31 connect rect (at -76.2 0) (size 1.78 7.62) (layers B.Cu B.Mask))
  (pad 30 connect rect (at -73.66 0) (size 1.78 7.62) (layers B.Cu B.Mask))
  (pad 29 connect rect (at -71.12 0) (size 1.78 7.62) (layers B.Cu B.Mask))
  (pad 28 connect rect (at -68.58 0) (size 1.78 7.62) (layers B.Cu B.Mask))
  (pad 27 connect rect (at -66.04 0) (size 1.78 7.62) (layers B.Cu B.Mask))
  (pad 26 connect rect (at -63.5 0) (size 1.78 7.62) (layers B.Cu B.Mask))
  (pad 25 connect rect (at -60.96 0) (size 1.78 7.62) (layers B.Cu B.Mask))
  (pad 24 connect rect (at -58.42 0) (size 1.78 7.62) (layers B.Cu B.Mask))
  (pad 23 connect rect (at -55.88 0) (size 1.78 7.62) (layers B.Cu B.Mask))
  (pad 22 connect rect (at -53.34 0) (size 1.78 7.62) (layers B.Cu B.Mask))
  (pad 21 connect rect (at -50.8 0) (size 1.78 7.62) (layers B.Cu B.Mask))
  (pad 20 connect rect (at -48.26 0) (size 1.78 7.62) (layers B.Cu B.Mask))
  (pad 19 connect rect (at -45.72 0) (size 1.78 7.62) (layers B.Cu B.Mask))
  (pad 18 connect rect (at -43.18 0) (size 1.78 7.62) (layers B.Cu B.Mask))
  (pad 17 connect rect (at -40.64 0) (size 1.78 7.62) (layers B.Cu B.Mask))
  (pad 16 connect rect (at -38.1 0) (size 1.78 7.62) (layers B.Cu B.Mask))
  (pad 15 connect rect (at -35.56 0) (size 1.78 7.62) (layers B.Cu B.Mask))
  (pad 14 connect rect (at -33.02 0) (size 1.78 7.62) (layers B.Cu B.Mask))
  (pad 13 connect rect (at -30.48 0) (size 1.78 7.62) (layers B.Cu B.Mask))
  (pad 12 connect rect (at -27.94 0) (size 1.78 7.62) (layers B.Cu B.Mask))
  (pad 11 connect rect (at -25.4 0) (size 1.78 7.62) (layers B.Cu B.Mask))
  (pad 10 connect rect (at -22.86 0) (size 1.78 7.62) (layers B.Cu B.Mask))
  (pad 9 connect rect (at -20.32 0) (size 1.78 7.62) (layers B.Cu B.Mask))
  (pad 8 connect rect (at -17.78 0) (size 1.78 7.62) (layers B.Cu B.Mask))
  (pad 7 connect rect (at -15.24 0) (size 1.78 7.62) (layers B.Cu B.Mask))
  (pad 6 connect rect (at -12.7 0) (size 1.78 7.62) (layers B.Cu B.Mask))
  (pad 5 connect rect (at -10.16 0) (size 1.78 7.62) (layers B.Cu B.Mask))
  (pad 4 connect rect (at -7.62 0) (size 1.78 7.62) (layers B.Cu B.Mask))
  (pad 3 connect rect (at -5.08 0) (size 1.78 7.62) (layers B.Cu B.Mask))
  (pad 2 connect rect (at -2.54 0) (size 1.78 7.62) (layers B.Cu B.Mask))
  (pad 1 connect rect (at 0 0) (size 1.78 7.62) (layers B.Cu B.Mask))
)
